{
	"class" : {
		"for:" : "EstebanLorenzano 4/1/2013 16:37",
		"new" : "EstebanLorenzano 4/1/2013 16:37",
		"path" : "EstebanLorenzano 5/6/2013 12:53" },
	"instance" : {
		"createHeader" : "EstebanLorenzano 4/13/2013 18:52",
		"initialize:" : "EstebanLorenzano 4/1/2013 16:38",
		"path" : "EstebanLorenzano 5/6/2013 12:53",
		"shownTracks" : "EstebanLorenzano 4/13/2013 18:27",
		"system" : "EstebanLorenzano 4/1/2013 16:38" } }
