{
	"category" : "EVE-Tools-Core-Model",
	"classinstvars" : [
		 ],
	"classvars" : [
		 ],
	"commentStamp" : "<historical>",
	"instvars" : [
		 ],
	"name" : "EveError",
	"pools" : [
		 ],
	"super" : "Error",
	"type" : "normal" }
