{
	"category" : "EVE-Tools-Spy-View",
	"classinstvars" : [
		 ],
	"classvars" : [
		 ],
	"commentStamp" : "<historical>",
	"instvars" : [
		"track" ],
	"name" : "EveSpyUpdateTrackPanel",
	"pools" : [
		 ],
	"super" : "EveSpyNewTrackPanel",
	"type" : "normal" }
