{
	"class" : {
		"for:" : "EstebanLorenzano 3/30/2013 21:21",
		"path" : "EstebanLorenzano 4/12/2013 09:44" },
	"instance" : {
		"classForTeckLevel:" : "EstebanLorenzano 3/30/2013 23:42",
		"createAnalysisPanel" : "EstebanLorenzano 4/6/2013 18:05",
		"createCharactersPanel" : "EstebanLorenzano 4/13/2013 00:55",
		"createGeneralPanel" : "EstebanLorenzano 4/13/2013 17:07",
		"createMuteButtonFor:" : "EstebanLorenzano 4/13/2013 17:43",
		"createPermalinkPart" : "EstebanLorenzano 4/6/2013 19:36",
		"createShipsPanel" : "EstebanLorenzano 4/6/2013 17:26",
		"createSystemPart" : "EstebanLorenzano 4/13/2013 00:56",
		"createTotalResultsPanel" : "EstebanLorenzano 4/6/2013 08:41",
		"createTrackPanel" : "EstebanLorenzano 4/6/2013 11:32",
		"initialize:" : "EstebanLorenzano 3/31/2013 20:37",
		"initializeContents" : "EstebanLorenzano 4/13/2013 18:33",
		"isNotSpyEmpty" : "EstebanLorenzano 4/6/2013 17:28",
		"isTrackInSpy" : "EstebanLorenzano 4/13/2013 22:29",
		"local" : "EstebanLorenzano 3/31/2013 22:00",
		"mute:" : "EstebanLorenzano 4/7/2013 13:03",
		"path" : "EstebanLorenzano 4/12/2013 09:44",
		"scan" : "EstebanLorenzano 3/31/2013 20:37",
		"shipClassGroup:ships:" : "EstebanLorenzano 4/13/2013 18:02",
		"showSystem" : "EstebanLorenzano 4/7/2013 17:04",
		"showTrack:" : "EstebanLorenzano 4/4/2013 18:15",
		"spy" : "EstebanLorenzano 4/1/2013 18:57",
		"track" : "EstebanLorenzano 3/31/2013 20:37" } }
