{
	"class" : {
		"basePath" : "EstebanLorenzano 11/5/2013 13:10" },
	"instance" : {
		"createHistoricsPanel" : "EstebanLorenzano 7/6/2013 13:18",
		"createSharesPanel" : "EstebanLorenzano 6/29/2013 13:21",
		"createTotalsPanel" : "EstebanLorenzano 5/2/2014 10:25",
		"currentWeek" : "EstebanLorenzano 5/2/2014 10:27",
		"initializeContents" : "EstebanLorenzano 6/29/2013 12:55",
		"isSuperuser" : "EstebanLorenzano 4/15/2013 19:29",
		"shares" : "EstebanLorenzano 4/11/2013 20:15",
		"showHistorics" : "EstebanLorenzano 5/2/2014 10:24" } }
