{
	"category" : "EVE-Tools-View",
	"classinstvars" : [
		 ],
	"classvars" : [
		 ],
	"commentStamp" : "",
	"instvars" : [
		"errorMessage" ],
	"name" : "EveAssertDecoration",
	"pools" : [
		 ],
	"super" : "WADecoration",
	"type" : "normal" }
