{
	"class" : {
		"findByExactName:ifAbsent:" : "EstebanLorenzano 11/23/2013 09:56",
		"findById:" : "EstebanLorenzano 5/6/2013 12:54",
		"findById:ifAbsent:" : "EstebanLorenzano 5/6/2013 12:54",
		"fromString:" : "EstebanLorenzano 4/15/2013 15:43",
		"importSystemsFrom:" : "EstebanLorenzano 4/15/2013 15:39",
		"initializeSystems" : "EstebanLorenzano 4/15/2013 15:24",
		"isVoyageRoot" : "EstebanLorenzano 4/13/2013 18:59",
		"mongoContainer" : "EstebanLorenzano 4/13/2013 20:35",
		"name:" : "EstebanLorenzano 11/23/2013 09:54",
		"unknown" : "EstebanLorenzano 4/13/2013 22:27" },
	"instance" : {
		"constelationId" : "EstebanLorenzano 4/15/2013 13:47",
		"id" : "EstebanLorenzano 4/15/2013 13:47",
		"initializeFromString:" : "EstebanLorenzano 4/15/2013 15:43",
		"label" : "EstebanLorenzano 4/1/2013 16:59",
		"regionId" : "EstebanLorenzano 4/15/2013 13:47",
		"security" : "EstebanLorenzano 4/15/2013 13:47",
		"urlDotlan" : "EstebanLorenzano 4/7/2013 16:27" } }
