{
	"class" : {
		"beDeploy" : "EstebanLorenzano 4/10/2013 19:18",
		"beDevelopment" : "EstebanLorenzano 4/10/2013 19:18",
		"character" : "EstebanLorenzano 11/5/2013 11:48",
		"createCharacterFromName" : "EstebanLorenzano 11/5/2013 11:47",
		"isDeploy" : "EstebanLorenzano 4/10/2013 19:18",
		"isDevelopment" : "EstebanLorenzano 4/11/2013 10:36",
		"isIGB" : "EstebanLorenzano 11/5/2013 11:17",
		"isMemberOfCoporation:" : "EstebanLorenzano 4/11/2013 10:37",
		"isTrusted" : "EstebanLorenzano 4/15/2013 19:11",
		"requestContext" : "EstebanLorenzano 4/10/2013 19:16",
		"requestHeaderAt:" : "EstebanLorenzano 4/10/2013 19:11",
		"requestHeaderAt:ifAbsent:" : "EstebanLorenzano 4/10/2013 19:11" },
	"instance" : {
		"characterIdsFor:" : "EstebanLorenzano 4/13/2013 15:45",
		"characterInfoFor:" : "EstebanLorenzano 5/2/2014 17:22",
		"parse:" : "EstebanLorenzano 4/4/2013 20:14",
		"parseRequest:query:" : "EstebanLorenzano 5/2/2014 17:22",
		"parser" : "EstebanLorenzano 4/4/2013 20:14",
		"urlFor:" : "EstebanLorenzano 4/4/2013 20:18" } }
