{
	"category" : "EVE-Tools-Core-API",
	"classinstvars" : [
		"deploy" ],
	"classvars" : [
		 ],
	"commentStamp" : "<historical>",
	"instvars" : [
		"parser" ],
	"name" : "EveConnect",
	"pools" : [
		 ],
	"super" : "Object",
	"type" : "normal" }
