{
	"class" : {
		 },
	"instance" : {
		"continueWithRoot:" : "EstebanLorenzano 4/11/2013 00:07",
		"notFound" : "EstebanLorenzano 4/11/2013 00:07",
		"obtainSessionWithApplication:context:" : "EstebanLorenzano 4/11/2013 00:07" } }
