{
	"class" : {
		"currentAddIfAbsent" : "EstebanLorenzano 5/2/2014 10:27",
		"currentIfAbsent:" : "EstebanLorenzano 4/11/2013 11:05",
		"findByWeek:ifAbsent:" : "EstebanLorenzano 7/8/2013 19:56",
		"findOpen" : "EstebanLorenzano 7/8/2013 15:28",
		"fixRepeatedWeeksFrom:" : "EstebanLorenzano 7/8/2013 15:39",
		"historicsFor:" : "EstebanLorenzano 7/6/2013 12:58",
		"isVoyageRoot" : "EstebanLorenzano 4/11/2013 11:02",
		"mongoContainer" : "EstebanLorenzano 4/13/2013 20:36",
		"mongoWeek" : "EstebanLorenzano 7/8/2013 15:42",
		"new" : "EstebanLorenzano 4/11/2013 11:02",
		"week:" : "EstebanLorenzano 4/11/2013 11:02" },
	"instance" : {
		"addBill:" : "EstebanLorenzano 4/11/2013 20:53",
		"bills" : "EstebanLorenzano 4/11/2013 14:20",
		"close" : "EstebanLorenzano 4/11/2013 20:20",
		"initialize" : "EstebanLorenzano 4/11/2013 20:20",
		"initialize:" : "EstebanLorenzano 4/11/2013 14:19",
		"isClosed" : "EstebanLorenzano 4/11/2013 20:20",
		"isOpen" : "EstebanLorenzano 4/11/2013 20:32",
		"printOn:" : "EstebanLorenzano 4/11/2013 19:22",
		"shares" : "EstebanLorenzano 5/19/2013 12:42",
		"sharesFor:" : "EstebanLorenzano 4/11/2013 20:15",
		"week" : "EstebanLorenzano 4/11/2013 16:23",
		"week:" : "EstebanLorenzano 4/15/2013 09:33" } }
