{
	"class" : {
		"findByCorporation:" : "EstebanLorenzano 4/15/2013 16:11",
		"findById:" : "EstebanLorenzano 4/15/2013 19:21",
		"findById:ifAbsent:" : "EstebanLorenzano 4/13/2013 19:44",
		"isVoyageRoot" : "EstebanLorenzano 4/13/2013 18:59",
		"mongoAlliance" : "EstebanLorenzano 4/13/2013 21:03",
		"mongoContainer" : "EstebanLorenzano 4/13/2013 20:35",
		"mongoCorporation" : "EstebanLorenzano 4/13/2013 21:03",
		"updateDuration" : "EstebanLorenzano 4/6/2013 09:11" },
	"instance" : {
		"ageAsString" : "EstebanLorenzano 4/13/2013 13:22",
		"alliance" : "EstebanLorenzano 4/16/2013 21:57",
		"alt" : "EstebanLorenzano 5/19/2013 10:41",
		"alt:" : "EstebanLorenzano 5/19/2013 10:40",
		"beNotSuperuser" : "EstebanLorenzano 7/16/2013 09:05",
		"beSuperuser" : "EstebanLorenzano 7/16/2013 09:05",
		"corporation" : "EstebanLorenzano 4/6/2013 08:07",
		"corporationDate" : "EstebanLorenzano 4/6/2013 08:07",
		"corporationId" : "EstebanLorenzano 11/5/2013 11:23",
		"corporationName" : "EstebanLorenzano 4/12/2013 18:22",
		"id" : "EstebanLorenzano 4/4/2013 20:17",
		"isAlt" : "EstebanLorenzano 5/19/2013 10:41",
		"isSuperuser" : "EstebanLorenzano 7/16/2013 09:04",
		"label" : "EstebanLorenzano 4/1/2013 16:59",
		"needUpdate" : "EstebanLorenzano 11/5/2013 11:46",
		"needUpdateId" : "EstebanLorenzano 11/5/2013 11:46",
		"notAlt" : "EstebanLorenzano 5/19/2013 12:37",
		"plainName" : "EstebanLorenzano 11/23/2013 15:42",
		"roundedSecurityStatus" : "EstebanLorenzano 4/7/2013 15:36",
		"securityStatus" : "EstebanLorenzano 4/13/2013 12:53",
		"startDate" : "EstebanLorenzano 4/6/2013 08:06",
		"timeInCorpAsString" : "EstebanLorenzano 4/7/2013 15:33",
		"updateFromEve" : "EstebanLorenzano 5/2/2014 17:30",
		"updateIdFrom:" : "EstebanLorenzano 4/23/2013 22:05",
		"urlBattleclinic" : "EstebanLorenzano 5/2/2014 18:22",
		"urlEVEWho" : "EstebanLorenzano 5/2/2014 18:22",
		"urlPortrait1024" : "EstebanLorenzano 4/10/2013 19:36",
		"urlPortrait128" : "EstebanLorenzano 4/10/2013 19:36",
		"urlPortrait200" : "EstebanLorenzano 4/10/2013 19:36",
		"urlPortrait256" : "EstebanLorenzano 4/10/2013 19:36",
		"urlPortrait30" : "EstebanLorenzano 4/10/2013 19:36",
		"urlPortrait32" : "EstebanLorenzano 4/10/2013 19:36",
		"urlPortrait512" : "EstebanLorenzano 4/10/2013 19:36",
		"urlPortrait64" : "EstebanLorenzano 4/10/2013 19:36",
		"urlPortrait:" : "EstebanLorenzano 4/10/2013 19:34",
		"urlZKillboard" : "EstebanLorenzano 4/7/2013 17:41" } }
