{
	"category" : "EVE-Tools-CRP-View",
	"classinstvars" : [
		 ],
	"classvars" : [
		 ],
	"commentStamp" : "<historical>",
	"instvars" : [
		 ],
	"name" : "EveCrpHeaderPanel",
	"pools" : [
		 ],
	"super" : "REPanel",
	"type" : "normal" }
