{
	"category" : "EVE-Tools-CRP-Model",
	"classinstvars" : [
		 ],
	"classvars" : [
		"TaxRate" ],
	"commentStamp" : "<historical>",
	"instvars" : [
		"reportingCharacter",
		"date",
		"transactionType",
		"concept",
		"amount",
		"fleet",
		"comment",
		"taxRate" ],
	"name" : "EveCrpBill",
	"pools" : [
		 ],
	"super" : "Object",
	"type" : "normal" }
