{
	"class" : {
		"all" : "EstebanLorenzano 4/15/2013 09:53",
		"findByName:ifAbsent:" : "EstebanLorenzano 4/11/2013 15:00",
		"fuel" : "EstebanLorenzano 5/2/2014 10:26",
		"gas" : "EstebanLorenzano 5/2/2014 10:26",
		"loot" : "EstebanLorenzano 5/2/2014 10:26",
		"mining" : "EstebanLorenzano 5/2/2014 10:26",
		"name:type:" : "EstebanLorenzano 4/11/2013 15:29",
		"name:type:taxes:" : "EstebanLorenzano 4/15/2013 09:43",
		"name:type:taxes:altPenalty:" : "EstebanLorenzano 5/21/2013 09:14",
		"new" : "EstebanLorenzano 4/11/2013 14:55",
		"otherCredit" : "EstebanLorenzano 5/2/2014 10:26",
		"otherDebit" : "EstebanLorenzano 5/2/2014 10:26",
		"pi" : "EstebanLorenzano 5/2/2014 10:26" },
	"instance" : {
		"altShareFor:" : "EstebanLorenzano 5/21/2013 09:09",
		"appliesAltPenalty" : "EstebanLorenzano 5/21/2013 09:10",
		"appliesTaxes" : "EstebanLorenzano 4/15/2013 09:41",
		"corporationShareFor:rate:" : "EstebanLorenzano 6/29/2013 12:01",
		"initialize" : "EstebanLorenzano 5/21/2013 09:11",
		"initializeName:type:" : "EstebanLorenzano 4/11/2013 15:30",
		"initializeName:type:taxes:" : "EstebanLorenzano 4/15/2013 09:43",
		"initializeName:type:taxes:altPenalty:" : "EstebanLorenzano 5/21/2013 09:11",
		"taxesFor:rate:" : "EstebanLorenzano 6/29/2013 12:00",
		"type" : "EstebanLorenzano 4/11/2013 15:30" } }
